C51 COMPILER V9.53.0.0   MA38435_TX5_TX8                                                   01/02/2020 11:38:31 PAGE 1   


C51 COMPILER V9.53.0.0, COMPILATION OF MODULE MA38435_TX5_TX8
OBJECT MODULE PLACED IN .\LDD\MA38435_TX5_TX8.OBJ
COMPILER INVOKED BY: c:\SiliconLabs\SimplicityStudio\v4\developer\toolchains\keil_8051\9.53\BIN\C51.exe D:\Luxshare_OET\
                    -公司專案_FW\OSFP_400G_DSP\FW\V0300_CMIS30\OET_OSFP_400G_DSP_TL_MACOM_CMIS30\LDD\MA38435_TX5_TX8.c OMF2 SMALL DEBUG OBJEC
                    -TEXTEND ROM(LARGE) WARNINGLEVEL(2) FLOATFUZZY(3) OPTIMIZE(8,SPEED) DEFINE(DEBUG=1) INTVECTOR(0X0000) INTPROMOTE INCDIR(D
                    -:\Luxshare_OET\公司專案_FW\OSFP_400G_DSP\FW\V0300_CMIS30\OET_OSFP_400G_DSP_TL_MACOM_CMIS30\inc;C:/SiliconLabs/Simplicity
                    -Studio/v4/developer/sdks/8051/v4.0.7//Device/shared/si8051base;C:/SiliconLabs/SimplicityStudio/v4/developer/sdks/8051/v4
                    -.0.7//Device/EFM8LB1/inc) PRINT(.\LDD\MA38435_TX5_TX8.lst) COND PAGEWIDTH(120) PAGELENGTH(65) OBJECT(.\LDD\MA38435_TX5_T
                    -X8.OBJ)

line level    source

   1          /*
   2           * MA38435_TX5_TX8.c
   3           *
   4           *  Created on: 2019年6月20日
   5           *      Author: Ivan_Lin
   6           */
   7          
   8          #include <SI_EFM8LB1_Register_Enums.h>
   9          #include "Master_I2C_GPIO.h"
  10          #include "MA38435_TX5_TX8.h"
  11          #include "EFM8LB_ADC.h"
  12          
  13          
  14          xdata struct MATA38435_TX5_TX8_MEMORY   MATA38435_TX5_TX8_MEMORY_MAP;
  15          
  16          //--------------------------------------------------------------------------------------------------------
             ----------//
  17          //------------------------------------ MATA38435_TX5_TX8 I2C Write    ------------------------------------
             ----------//
  18          //--------------------------------------------------------------------------------------------------------
             ----------//
  19          void MALD38435_TX5_TX8_Control_Write_ALL()
  20          {
  21   1              Master_I2C_WriteByte( MALD38435_SADR , 0x03 , MATA38435_TX5_TX8_MEMORY_MAP.IO_Control   , Master_I2C2 );
  22   1              Master_I2C_WriteByte( MALD38435_SADR , 0x05 , MATA38435_TX5_TX8_MEMORY_MAP.I2C_ADR_MODE , Master_I2C2 );
  23   1              Master_I2C_WriteByte( MALD38435_SADR , 0x10 , MATA38435_TX5_TX8_MEMORY_MAP.CH_MODE      , Master_I2C2 );
  24   1              Master_I2C_WriteByte( MALD38435_SADR , 0x16 , MATA38435_TX5_TX8_MEMORY_MAP.LOS_MASK     , Master_I2C2 );
  25   1              Master_I2C_WriteByte( MALD38435_SADR , 0x19 , MATA38435_TX5_TX8_MEMORY_MAP.LOS_ALARM    , Master_I2C2 );
  26   1              Master_I2C_WriteByte( MALD38435_SADR , 0x1B , MATA38435_TX5_TX8_MEMORY_MAP.TX_F_A_MASK  , Master_I2C2 );
  27   1              Master_I2C_WriteByte( MALD38435_SADR , 0x1C , MATA38435_TX5_TX8_MEMORY_MAP.TX_F_Alarm   , Master_I2C2 );
  28   1              Master_I2C_WriteByte( MALD38435_SADR , 0x1D , MATA38435_TX5_TX8_MEMORY_MAP.Ignore_TXF   , Master_I2C2 );
  29   1              Master_I2C_WriteByte( MALD38435_SADR , 0x21 , MATA38435_TX5_TX8_MEMORY_MAP.LOS_THRS     , Master_I2C2 );
  30   1              Master_I2C_WriteByte( MALD38435_SADR , 0x22 , MATA38435_TX5_TX8_MEMORY_MAP.LOS_HYST     , Master_I2C2 );
  31   1              Master_I2C_WriteByte( MALD38435_SADR , 0x25 , MATA38435_TX5_TX8_MEMORY_MAP.Rvcsel_CH0   , Master_I2C2 );
  32   1              Master_I2C_WriteByte( MALD38435_SADR , 0x26 , MATA38435_TX5_TX8_MEMORY_MAP.Rvcsel_CH1   , Master_I2C2 );
  33   1              Master_I2C_WriteByte( MALD38435_SADR , 0x27 , MATA38435_TX5_TX8_MEMORY_MAP.Rvcsel_CH2   , Master_I2C2 );
  34   1              Master_I2C_WriteByte( MALD38435_SADR , 0x28 , MATA38435_TX5_TX8_MEMORY_MAP.Rvcsel_CH3   , Master_I2C2 );
  35   1              Master_I2C_WriteByte( MALD38435_SADR , 0x40 , MATA38435_TX5_TX8_MEMORY_MAP.OUTPUT_MUTE  , Master_I2C2 );
  36   1              Master_I2C_WriteByte( MALD38435_SADR , 0x41 , MATA38435_TX5_TX8_MEMORY_MAP.TX_DISABLE   , Master_I2C2 );
  37   1              Master_I2C_WriteByte( MALD38435_SADR , 0x4A , MATA38435_TX5_TX8_MEMORY_MAP.AC_Gain_CH0   , Master_I2C2 );
  38   1              Master_I2C_WriteByte( MALD38435_SADR , 0x4B , MATA38435_TX5_TX8_MEMORY_MAP.AC_Gain_CH1   , Master_I2C2 );
  39   1              Master_I2C_WriteByte( MALD38435_SADR , 0x4C , MATA38435_TX5_TX8_MEMORY_MAP.AC_Gain_CH2   , Master_I2C2 );
  40   1              Master_I2C_WriteByte( MALD38435_SADR , 0x4D , MATA38435_TX5_TX8_MEMORY_MAP.AC_Gain_CH3   , Master_I2C2 );
  41   1              Master_I2C_WriteByte( MALD38435_SADR , 0x4F , MATA38435_TX5_TX8_MEMORY_MAP.DC_Gain_CH0   , Master_I2C2 );
  42   1              Master_I2C_WriteByte( MALD38435_SADR , 0x50 , MATA38435_TX5_TX8_MEMORY_MAP.DC_Gain_CH1   , Master_I2C2 );
  43   1              Master_I2C_WriteByte( MALD38435_SADR , 0x51 , MATA38435_TX5_TX8_MEMORY_MAP.DC_Gain_CH2   , Master_I2C2 );
  44   1              Master_I2C_WriteByte( MALD38435_SADR , 0x52 , MATA38435_TX5_TX8_MEMORY_MAP.DC_Gain_CH3   , Master_I2C2 );
  45   1              Master_I2C_WriteByte( MALD38435_SADR , 0x5E , MATA38435_TX5_TX8_MEMORY_MAP.IBurnIn       , Master_I2C2 );
  46   1              Master_I2C_WriteByte( MALD38435_SADR , 0x5F , MATA38435_TX5_TX8_MEMORY_MAP.BurnIn_EN     , Master_I2C2 );
  47   1      
C51 COMPILER V9.53.0.0   MA38435_TX5_TX8                                                   01/02/2020 11:38:31 PAGE 2   

  48   1              Master_I2C_WriteByte( MALD38435_SADR , 0x42 , MATA38435_TX5_TX8_MEMORY_MAP.IBias_CH0     , Master_I2C2 );
  49   1              Master_I2C_WriteByte( MALD38435_SADR , 0x43 , MATA38435_TX5_TX8_MEMORY_MAP.IBias_CH1     , Master_I2C2 );
  50   1              Master_I2C_WriteByte( MALD38435_SADR , 0x44 , MATA38435_TX5_TX8_MEMORY_MAP.IBias_CH2     , Master_I2C2 );
  51   1              Master_I2C_WriteByte( MALD38435_SADR , 0x45 , MATA38435_TX5_TX8_MEMORY_MAP.IBias_CH3     , Master_I2C2 );
  52   1              Master_I2C_WriteByte( MALD38435_SADR , 0x46 , MATA38435_TX5_TX8_MEMORY_MAP.Imod_CH0      , Master_I2C2 );
  53   1              Master_I2C_WriteByte( MALD38435_SADR , 0x47 , MATA38435_TX5_TX8_MEMORY_MAP.Imod_CH1      , Master_I2C2 );
  54   1              Master_I2C_WriteByte( MALD38435_SADR , 0x48 , MATA38435_TX5_TX8_MEMORY_MAP.Imod_CH2      , Master_I2C2 );
  55   1              Master_I2C_WriteByte( MALD38435_SADR , 0x49 , MATA38435_TX5_TX8_MEMORY_MAP.Imod_CH3      , Master_I2C2 );
  56   1      }
  57          
  58          //--------------------------------------------------------------------------------------------------------
             ----------//
  59          //------------------------------------ MATA38435_TX5_TX8 I2C READ     ------------------------------------
             ----------//
  60          //--------------------------------------------------------------------------------------------------------
             ----------//
  61          void MALD38435_TX5_TX8_Control_READ_ALL()
  62          {
  63   1              // Read only Byte
  64   1              MATA38435_TX5_TX8_MEMORY_MAP.CHIP_ID        =  Master_I2C_ReadByte( MALD38435_SADR , 0x00 , Master_I2C2 )
             -;
  65   1              MATA38435_TX5_TX8_MEMORY_MAP.REVID          =  Master_I2C_ReadByte( MALD38435_SADR , 0x01 , Master_I2C2 )
             -;
  66   1              MATA38435_TX5_TX8_MEMORY_MAP.LOS_Status     =  Master_I2C_ReadByte( MALD38435_SADR , 0x17 , Master_I2C2 )
             -;
  67   1              MATA38435_TX5_TX8_MEMORY_MAP.TX_Status      =  Master_I2C_ReadByte( MALD38435_SADR , 0x18 , Master_I2C2 )
             -;
  68   1              MATA38435_TX5_TX8_MEMORY_MAP.Tx_Fault_State =  Master_I2C_ReadByte( MALD38435_SADR , 0x1A , Master_I2C2 )
             -;
  69   1              // Read/Write Byte
  70   1              MATA38435_TX5_TX8_MEMORY_MAP.IO_Control     =  Master_I2C_ReadByte( MALD38435_SADR , 0x03 , Master_I2C2 )
             -;
  71   1              MATA38435_TX5_TX8_MEMORY_MAP.I2C_ADR_MODE   =  Master_I2C_ReadByte( MALD38435_SADR , 0x05 , Master_I2C2 )
             -;
  72   1              MATA38435_TX5_TX8_MEMORY_MAP.CH_MODE        =  Master_I2C_ReadByte( MALD38435_SADR , 0x10 , Master_I2C2 )
             -;
  73   1              MATA38435_TX5_TX8_MEMORY_MAP.LOS_MASK       =  Master_I2C_ReadByte( MALD38435_SADR , 0x16 , Master_I2C2 )
             -;
  74   1              MATA38435_TX5_TX8_MEMORY_MAP.LOS_ALARM      =  Master_I2C_ReadByte( MALD38435_SADR , 0x19 , Master_I2C2 )
             -;
  75   1              MATA38435_TX5_TX8_MEMORY_MAP.TX_F_A_MASK    =  Master_I2C_ReadByte( MALD38435_SADR , 0x1B , Master_I2C2 )
             -;
  76   1              MATA38435_TX5_TX8_MEMORY_MAP.TX_F_Alarm     =  Master_I2C_ReadByte( MALD38435_SADR , 0x1C , Master_I2C2 )
             -;
  77   1              MATA38435_TX5_TX8_MEMORY_MAP.Ignore_TXF     =  Master_I2C_ReadByte( MALD38435_SADR , 0x1D , Master_I2C2 )
             -;
  78   1      
  79   1              MATA38435_TX5_TX8_MEMORY_MAP.LOS_THRS       =  Master_I2C_ReadByte( MALD38435_SADR , 0x21 , Master_I2C2 )
             -;
  80   1              MATA38435_TX5_TX8_MEMORY_MAP.LOS_HYST       =  Master_I2C_ReadByte( MALD38435_SADR , 0x22 , Master_I2C2 )
             -;
  81   1              MATA38435_TX5_TX8_MEMORY_MAP.Rvcsel_CH0     =  Master_I2C_ReadByte( MALD38435_SADR , 0x25 , Master_I2C2 )
             -;
  82   1              MATA38435_TX5_TX8_MEMORY_MAP.Rvcsel_CH1     =  Master_I2C_ReadByte( MALD38435_SADR , 0x26 , Master_I2C2 )
             -;
  83   1              MATA38435_TX5_TX8_MEMORY_MAP.Rvcsel_CH2     =  Master_I2C_ReadByte( MALD38435_SADR , 0x27 , Master_I2C2 )
             -;
  84   1              MATA38435_TX5_TX8_MEMORY_MAP.Rvcsel_CH3     =  Master_I2C_ReadByte( MALD38435_SADR , 0x28 , Master_I2C2 )
             -;
  85   1              MATA38435_TX5_TX8_MEMORY_MAP.OUTPUT_MUTE    =  Master_I2C_ReadByte( MALD38435_SADR , 0x40 , Master_I2C2 )
             -;
  86   1              MATA38435_TX5_TX8_MEMORY_MAP.TX_DISABLE     =  Master_I2C_ReadByte( MALD38435_SADR , 0x41 , Master_I2C2 )
             -;
C51 COMPILER V9.53.0.0   MA38435_TX5_TX8                                                   01/02/2020 11:38:31 PAGE 3   

  87   1      
  88   1              MATA38435_TX5_TX8_MEMORY_MAP.IBias_CH0      =  Master_I2C_ReadByte( MALD38435_SADR , 0x42 , Master_I2C2 )
             -;
  89   1              MATA38435_TX5_TX8_MEMORY_MAP.IBias_CH1      =  Master_I2C_ReadByte( MALD38435_SADR , 0x43 , Master_I2C2 )
             -;
  90   1              MATA38435_TX5_TX8_MEMORY_MAP.IBias_CH2      =  Master_I2C_ReadByte( MALD38435_SADR , 0x44 , Master_I2C2 )
             -;
  91   1              MATA38435_TX5_TX8_MEMORY_MAP.IBias_CH3      =  Master_I2C_ReadByte( MALD38435_SADR , 0x45 , Master_I2C2 )
             -;
  92   1              MATA38435_TX5_TX8_MEMORY_MAP.Imod_CH0       =  Master_I2C_ReadByte( MALD38435_SADR , 0x46 , Master_I2C2 )
             -;
  93   1              MATA38435_TX5_TX8_MEMORY_MAP.Imod_CH1       =  Master_I2C_ReadByte( MALD38435_SADR , 0x47 , Master_I2C2 )
             -;
  94   1              MATA38435_TX5_TX8_MEMORY_MAP.Imod_CH2       =  Master_I2C_ReadByte( MALD38435_SADR , 0x48 , Master_I2C2 )
             -;
  95   1              MATA38435_TX5_TX8_MEMORY_MAP.Imod_CH3       =  Master_I2C_ReadByte( MALD38435_SADR , 0x49 , Master_I2C2 )
             -;
  96   1      
  97   1              MATA38435_TX5_TX8_MEMORY_MAP.AC_Gain_CH0    =  Master_I2C_ReadByte( MALD38435_SADR , 0x4A , Master_I2C2 )
             -;
  98   1              MATA38435_TX5_TX8_MEMORY_MAP.AC_Gain_CH1    =  Master_I2C_ReadByte( MALD38435_SADR , 0x4B , Master_I2C2 )
             -;
  99   1              MATA38435_TX5_TX8_MEMORY_MAP.AC_Gain_CH2    =  Master_I2C_ReadByte( MALD38435_SADR , 0x4C , Master_I2C2 )
             -;
 100   1              MATA38435_TX5_TX8_MEMORY_MAP.AC_Gain_CH3    =  Master_I2C_ReadByte( MALD38435_SADR , 0x4D , Master_I2C2 )
             -;
 101   1              MATA38435_TX5_TX8_MEMORY_MAP.DC_Gain_CH0    =  Master_I2C_ReadByte( MALD38435_SADR , 0x4F , Master_I2C2 )
             -;
 102   1              MATA38435_TX5_TX8_MEMORY_MAP.DC_Gain_CH1    =  Master_I2C_ReadByte( MALD38435_SADR , 0x50 , Master_I2C2 )
             -;
 103   1              MATA38435_TX5_TX8_MEMORY_MAP.DC_Gain_CH2    =  Master_I2C_ReadByte( MALD38435_SADR , 0x51 , Master_I2C2 )
             -;
 104   1              MATA38435_TX5_TX8_MEMORY_MAP.DC_Gain_CH3    =  Master_I2C_ReadByte( MALD38435_SADR , 0x52 , Master_I2C2 )
             -;
 105   1      
 106   1              MATA38435_TX5_TX8_MEMORY_MAP.IBurnIn        =  Master_I2C_ReadByte( MALD38435_SADR , 0x5E , Master_I2C2 )
             -;
 107   1              MATA38435_TX5_TX8_MEMORY_MAP.BurnIn_EN      =  Master_I2C_ReadByte( MALD38435_SADR , 0x5F , Master_I2C2 )
             -;
 108   1              MATA38435_TX5_TX8_MEMORY_MAP.ADC_Config0    =  Master_I2C_ReadByte( MALD38435_SADR , 0x60 , Master_I2C2 )
             -;
 109   1              MATA38435_TX5_TX8_MEMORY_MAP.ADC_Config2    =  Master_I2C_ReadByte( MALD38435_SADR , 0x62 , Master_I2C2 )
             -;
 110   1      
 111   1              MATA38435_TX5_TX8_MEMORY_MAP.Driver_ADC_CHSEL    =  Master_I2C_ReadByte( MALD38435_SADR , 0x91 , Master_I
             -2C2 );
 112   1              MATA38435_TX5_TX8_MEMORY_MAP.Driver_ADC_Measmt   =  Master_I2C_ReadByte( MALD38435_SADR , 0x92 , Master_I
             -2C2 );
 113   1      }
 114          
 115          unsigned int TXBIAS_TX5_TX8(unsigned char BIAS_CH)
 116          {
 117   1              unsigned int TX_BIAS_CURRENT = 0 ;
 118   1              unsigned int VAR2,VAR3 ;
 119   1              // Set Reg0x60h = 00h, Reg0x91h = 00/20/40/60h (select channel), Reg0x92h = 04h
 120   1              // Read Reg0x68h[7:0] and Reg0x69h[3:0],
 121   1              // Store VAR2 = The decimal value of Reg0x68h[7:0] and Reg0x69h[3:0] together
 122   1              // Set Reg0x60h = 00h, Reg0x91h = 00/20/40/60h (select channel), Reg0x92h=08h
 123   1              // Read Reg0x68h[7:0] and Reg0x69h[3:0]
 124   1              // Store VAR3 = The decimal value of Reg0x68h[7:0] and Reg0x69h[3:0] together
 125   1              // Calculate IBIAS = |VAR2 - VAR3| x VAR1 x 40.1uA
 126   1      
 127   1              Master_I2C_WriteByte( MALD38435_SADR , 0x60 , 0x10    , Master_I2C2 );
C51 COMPILER V9.53.0.0   MA38435_TX5_TX8                                                   01/02/2020 11:38:31 PAGE 4   

 128   1              Master_I2C_WriteByte( MALD38435_SADR , 0x91 , BIAS_CH , Master_I2C2 );
 129   1              Master_I2C_WriteByte( MALD38435_SADR , 0x92 , 0x08 , Master_I2C2 );
 130   1              Delay_ms(1);
 131   1              VAR3 = Master_I2C_Read_Two_Byte( MALD38435_SADR , 0x68 , Master_I2C2 );
 132   1              Master_I2C_WriteByte( MALD38435_SADR , 0x92 , 0x04 , Master_I2C2 );
 133   1              Delay_ms(1);
 134   1              VAR2 = Master_I2C_Read_Two_Byte( MALD38435_SADR , 0x68 , Master_I2C2 );
 135   1      
 136   1              TX_BIAS_CURRENT = ( VAR2 - VAR3 )*20;
 137   1      
 138   1              return TX_BIAS_CURRENT;
 139   1      }
 140          
 141          void MALD38435_TX5_TX8_RESET()
 142          {
 143   1              Master_I2C_WriteByte( MALD38435_SADR , 0x02 , 0xAA , Master_I2C2 );
 144   1              Delay_ms(10);
 145   1              Master_I2C_WriteByte( MALD38435_SADR , 0x02 , 0x00 , Master_I2C2 );
 146   1              Delay_ms(10);
 147   1      }
 148          
 149          
 150          void MALD38435_TX5_TX8_WRITE_P84()
 151          {
 152   1              MALD38435_TX5_TX8_Control_Write_ALL();
 153   1      }
 154          
 155          void MALD38435_TX5_TX8_READ_P84()
 156          {
 157   1              MALD38435_TX5_TX8_Control_READ_ALL();
 158   1              MATA38435_TX5_TX8_MEMORY_MAP.IC_RSVD_04    =  Master_I2C_ReadByte( MALD38435_SADR , 0x04 , Master_I2C2 );
 159   1              MATA38435_TX5_TX8_MEMORY_MAP.IC_RSVD_1E    =  Master_I2C_ReadByte( MALD38435_SADR , 0x1E , Master_I2C2 );
 160   1              MATA38435_TX5_TX8_MEMORY_MAP.IC_RSVD_29    =  Master_I2C_ReadByte( MALD38435_SADR , 0x29 , Master_I2C2 );
 161   1              MATA38435_TX5_TX8_MEMORY_MAP.IC_RSVD_5A    =  Master_I2C_ReadByte( MALD38435_SADR , 0x5A , Master_I2C2 );
 162   1              MATA38435_TX5_TX8_MEMORY_MAP.IC_RSVD_64    =  Master_I2C_ReadByte( MALD38435_SADR , 0x64 , Master_I2C2 );
 163   1      }


MODULE INFORMATION:   STATIC OVERLAYABLE
   CODE SIZE        =   1333    ----
   CONSTANT SIZE    =   ----    ----
   XDATA SIZE       =    128    ----
   PDATA SIZE       =   ----    ----
   DATA SIZE        =   ----       3
   IDATA SIZE       =   ----    ----
   BIT SIZE         =   ----    ----
   EDATA SIZE       =   ----    ----
   HDATA SIZE       =   ----    ----
   XDATA CONST SIZE =   ----    ----
   FAR CONST SIZE   =   ----    ----
END OF MODULE INFORMATION.


C51 COMPILATION COMPLETE.  0 WARNING(S),  0 ERROR(S)
